{
  "type": "service_account",
  "project_id": "fablabdragonboard",
  "private_key_id": "1ec8832c7fec6c67d6705895e6f1d63b0e0d009c",
  "private_key": "-----BEGIN PRIVATE KEY-----\nMIIEvAIBADANBgkqhkiG9w0BAQEFAASCBKYwggSiAgEAAoIBAQCwOfi2oqJHTbme\nX3xIPlUVzzSgyetsVJQMW0jn1+Zv6iENwKnN9gC5mtJedWfyg6QEwaZMrHnMq0KG\nN/BD0Y83bxBHe1HyNOLf/YK61am5hkZEJGyhBeIP9/nWLpoUx0NMivDpLlzoF1GW\nY4EUy9GaEuqX2AUZO2ISPdyl7bMd2gI7JwA3IpVqmwhw6zav5nUBm66Pmm/J7hm5\ngu0+J7DMz2v/BhviHYJAMwiiwQeH2JbFwIj18tXSN7u+VzFFGLibJ9PDgdOxaASw\ntYg+w8iplirdsNkAPQWj8Eo2X8IJNWv4UIoGVv6cnKE5Kn/XnTKyiwzp9DwIt9WF\nxJ0b+byJAgMBAAECggEAHx+V7/eILoypIDHf+shbcZcfRdhzhjXn0cjbdurYDWLt\nxIaG1tPALAeOaNVWbuvV72seCkOZ3U5P2PGPMwMTRqiMWPuMLPkvKn0U9hdfOt9e\nkJFYSBYIZ2aVzsB7QPkyRxXw11XzXaAkrilTtk8K7SmzGe8yc1LcDrmzOvDgpgA8\nPX2g2KUZv53bJ/qeVmmRFL1vimxnFD83U6zX5/TZu/9thelPcrvUGMqbdptpHcHz\nlQ7S3lkdHrDWczwuYlXpCHNQZ80nh8ltwBt8h/tNF+EONLzLZVQe/obxAP4k12xu\nmW3UuI5kkFOsYdoAh2pWsLHxlQVMyoGbCd8SpW4egwKBgQDbPy1EjBJ+EIVapPNu\nkvRt2y1eCwEd6CMwtIm6n/w7iHEUuWffgOo4sbBIB5ABjbP01J9XR5bQAK/MTO+e\n/yzpPnVAXagWjnHmkP3PPyCyzJ97gEQ8xan7vd70ikE//rjhXTwtyUv6K9CMnACE\n3nrdw2qYR6ElVuOqUFh/Gcf0jwKBgQDNxJtnudatI3DdGU6Y5wOIvcf769sp8gU4\nu84AEpGl7docRt8WdUbozPdfbYhT3EhpTG7iOx29hTnsaUjWG347OLoIV4+uik6F\nVbZnUazFcIo37z7YlcD1bPQHNi9X1tBShMaGc8286FC8t9RMqpNLhbYegk0IWDi/\nXSSfKgW5ZwKBgGe4b5XqHiV9c1j6iB9bbj86XTAMTK71TxCPmEitvwn69mQzgix+\nNFA134tz6HCTtPqyS99igrpMWN5x1zqExZ5iad3VcNua789/8FLHLpTnsNsgRyfo\n6w2pOXy+mzfHLXeQQBP5EvR7HeInOyegiMe41wjLejTL8lB0Sil27N2JAoGANpi9\nF0eS83uc3b1yQlXBdU3Nu0U4cKe7xPLn1NMYfCthHPGdDctuViTUWiio7H9dYzsZ\njMNcv8WSueyxm8XNt470pXP+NrSR4wT8Eev06KpUskSzqyoI+dW/5g31f9wKiGqc\ndl5Rr5cAnSI1nWYBER/YU74FDHrEC9p99hFjVW8CgYB32Z7wo6Z6oN50ZkenNvMl\nM2FM97KJ3y4EXdtESNhxyiOWzYQuXltu//PHIy125sjdwYRuecskYQkGURSx35lD\ne5MorWEwj7173ulZwPjE5TQEu+c8aAPgJr0MK7vTbr0bPKdJJDhXhDr0Eb1Xd/1Y\nngqxIgtryGTBmApjyEpdLg==\n-----END PRIVATE KEY-----\n",
  "client_email": "firebase-adminsdk-u7kdf@fablabdragonboard.iam.gserviceaccount.com",
  "client_id": "109334997383789277905",
  "auth_uri": "https://accounts.google.com/o/oauth2/auth",
  "token_uri": "https://oauth2.googleapis.com/token",
  "auth_provider_x509_cert_url": "https://www.googleapis.com/oauth2/v1/certs",
  "client_x509_cert_url": "https://www.googleapis.com/robot/v1/metadata/x509/firebase-adminsdk-u7kdf%40fablabdragonboard.iam.gserviceaccount.com"
}
